{
    "KPackageStructure": "KWin/Effect",
    "KPlugin": {
        "Authors": [
            {
                "Email": "philip.falkner@gmail.com, mgraesslin@kde.org",
                "Name": "Philip Falkner, Martin Gräßlin",
                "Name[ar]": "فيليب فالكنر، مارتن جراجلين",
                "Name[be]": "Philip Falkner, Martin Gräßlin",
                "Name[bg]": "Philip Falkner, Martin Gräßlin",
                "Name[ca@valencia]": "Philip Falkner, Martin Gräßlin",
                "Name[ca]": "Philip Falkner, Martin Gräßlin",
                "Name[en_GB]": "Philip Falkner, Martin Gräßlin",
                "Name[es]": "Philip Falkner, Martin Gräßlin",
                "Name[et]": "Philip Falkner, Martin Gräßlin",
                "Name[eu]": "Philip Falkner, Martin Gräßlin",
                "Name[fr]": "Philip Falkner, Martin Gräßlin",
                "Name[ia]": "Philip Falkner, Martin Gräßlin",
                "Name[it]": "Philip Falkner, Martin Gräßlin",
                "Name[ka]": "Philip Falkner, Martin Gräßlin",
                "Name[nl]": "Philip Falkner, Martin Gräßlin",
                "Name[pl]": "Philip Falkner, Martin Gräßlin",
                "Name[pt]": "Philip Falkner, Martin Gräßlin",
                "Name[ru]": "Philip Falkner, Martin Gräßlin",
                "Name[sl]": "Philip Falkner, Martin Gräßlin",
                "Name[ta]": "ஃபிலிப்பு ஃபால்குனர், மார்ட்டின் கிராஸ்லின்",
                "Name[tr]": "Philip Falkner, Martin Gräßlin",
                "Name[uk]": "Philip Falkner, Martin Gräßlin",
                "Name[vi]": "Philip Falkner, Martin Gräßlin",
                "Name[x-test]": "xxPhilip Falkner, Martin Gräßlinxx",
                "Name[zh_CN]": "Philip Falkner, Martin Gräßlin",
                "Name[zh_TW]": "Philip Falkner, Martin Gräßlin"
            }
        ],
        "Category": "Window Open/Close Animation",
        "Description": "Make windows smoothly fade in and out when they are shown or hidden",
        "Description[ar]": "اجعل النوافذ تظهر وتتلاشى بنعومة عند إظهاراها وإخفائها",
        "Description[be]": "Плаўнае згасанне або з'яўленне акон",
        "Description[bg]": "Постепенно избледняване при показване и скриване на прозорците",
        "Description[ca@valencia]": "Fa que les finestres s'encengen o s'apaguen de manera gradual quan es mostren o s'oculten",
        "Description[ca]": "Fa que les finestres s'encenguin o s'apaguin de manera gradual quan es mostren o s'oculten",
        "Description[en_GB]": "Make windows smoothly fade in and out when they are shown or hidden",
        "Description[es]": "Hacer que las ventanas se desvanezcan y reaparezcan suavemente al mostrarlas y al ocultarlas",
        "Description[et]": "Paneb aknad sujuvalt hääbuma või tugevnema, kui need peidetakse või nähtavale tuuakse",
        "Description[eu]": "Leihoak emeki koloregabetu/koloretu haiek erakustean edo ezkutatzean",
        "Description[fr]": "Faire un fondu enchaîné avant ou arrière des fenêtres lorsqu’elles sont affichées ou masquées",
        "Description[ia]": "Face que fenestras pote dulcemente pallidir intra e foras quando illos es monstrate o celate",
        "Description[it]": "Fai dissolvere e comparire gradualmente le finestre quando vengono mostrate o nascoste",
        "Description[nl]": "Laat vensters vloeiend opkomen/vervagen als ze worden weergegeven of verborgen",
        "Description[pl]": "Okna gładko wyłaniają się przy otwieraniu i zanikają przy zamykaniu",
        "Description[pt]": "Faz com que as janelas apareçam e desapareçam suavemente quando são apresentadas ou escondidas",
        "Description[ru]": "Закрывающиеся окна будут становиться всё более прозрачными, а потом совсем исчезать",
        "Description[sl]": "Modalna okna naj se gladko odtemnijo oz. zatemnijo, kadar se prikažejo ali skrijejo",
        "Description[ta]": "சாளரங்களை காட்டும்போது அவற்றிற்கு படிப்படியாக ஒளிகூட்டி, மறைக்கும்போது அவற்றை மங்கசெய்து மறைக்கும்",
        "Description[tr]": "Pencereler gösterilirken veya gizlenirken pürüzsüzce geçiş yapmalarını sağlar",
        "Description[uk]": "Плавна поява або зникнення вікон",
        "Description[vi]": "Làm cửa sổ hiện dần và mờ dần một cách êm dịu khi chúng hiện ra và biến mất",
        "Description[x-test]": "xxMake windows smoothly fade in and out when they are shown or hiddenxx",
        "Description[zh_CN]": "窗口显示/隐藏时呈现渐入渐出过渡动效",
        "Description[zh_TW]": "讓視窗在顯示或隱藏的時候平滑地淡入或淡出",
        "EnabledByDefault": false,
        "Icon": "preferences-system-windows-effect-fade",
        "Id": "kwin4_effect_fade",
        "License": "GPL",
        "Name": "Fade",
        "Name[ar]": "التلاشي",
        "Name[be]": "Зацямненне",
        "Name[bg]": "Избледняване",
        "Name[ca@valencia]": "Esvaïment",
        "Name[ca]": "Esvaïment",
        "Name[cs]": "Blednutí",
        "Name[en_GB]": "Fade",
        "Name[es]": "Desvanecer",
        "Name[et]": "Hääbumine",
        "Name[eu]": "Koloregabetu",
        "Name[fr]": "Atténuer",
        "Name[ia]": "Pallidi",
        "Name[it]": "Dissolvi",
        "Name[ka]": "მინავლება",
        "Name[nl]": "Vervagen",
        "Name[pl]": "Zanikanie",
        "Name[pt]": "Desvanecer",
        "Name[ru]": "Растворение",
        "Name[sl]": "Preliv",
        "Name[ta]": "மங்கசெய்",
        "Name[tr]": "Soldur",
        "Name[uk]": "Згасання",
        "Name[vi]": "Làm mờ dần",
        "Name[x-test]": "xxFadexx",
        "Name[zh_CN]": "淡出淡入动画",
        "Name[zh_TW]": "淡化",
        "Version": "0.2.0"
    },
    "X-KDE-Ordering": "60",
    "X-KWin-Exclusive-Category": "toplevel-open-close-animation",
    "X-Plasma-API": "javascript",
    "X-Plasma-MainScript": "code/main.js"
}
